{
  "games": ["Dev & Me", "gitlab.com/devandme/DevAndMeBot"],
  "broadcast": ["Dev & Me", "gitlab.com/devandme/DevAndMeBot"],
  "gameRotationDelay": "5",
  "gameRotationDelayUnit": "MINUTES",
  "discordToken": "<-->",
  "gitlabtoken": "<-->",
  "messagesSend": 0,
  "commandesSend": 0
}